Neurodivergencia, autodiagnóstico y redes sociales
…
Cluster: palabras principales

## # A tibble: 32 × 4
##    cluster feature               n porcentaje
##      <int> <chr>             <dbl>      <dbl>
##  1       1 #autismo              6       7.69
##  2       1 #neurodivergente      6       7.69
##  3       1 #tdah                 5       6.41
##  4       1 #tea                  4       5.13
##  5       1 #autism               3       3.85
##  6       1 #memes                3       3.85
##  7       1 #mujerautista         3       3.85
##  8       1 #neurodivergencia     3       3.85
##  9       1 #neurospicy           3       3.85
## 10       1 perfil                3       3.85
## # ℹ 22 more rows
…
